<svg width="23" height="22" viewBox="0 0 23 22" fill="none" xmlns="http://www.w3.org/2000/svg">
<path d="M1.61 3.57143L9.70804 11.6695C10.6007 12.5621 12.0479 12.5621 12.9405 11.6695L21.0386 3.57143M2.18143 19H20.4671C21.0983 19 21.61 18.4883 21.61 17.8571V4.14286C21.61 3.51167 21.0983 3 20.4671 3H2.18143C1.55025 3 1.03857 3.51168 1.03857 4.14286V17.8571C1.03857 18.4883 1.55025 19 2.18143 19Z" stroke="black" stroke-width="2" stroke-linecap="round" stroke-linejoin="round"/>
</svg>
