<svg width="126" height="126" viewBox="0 0 126 126" fill="none" xmlns="http://www.w3.org/2000/svg">
<path d="M85.1209 45.1213C86.2925 43.9497 86.2925 42.0503 85.1209 40.8787C83.9493 39.7071 82.0498 39.7071 80.8783 40.8787L85.1209 45.1213ZM40.8783 80.8786C39.7067 82.0502 39.7067 83.9497 40.8783 85.1213C42.0499 86.2928 43.9494 86.2928 45.1209 85.1213L40.8783 80.8786ZM45.1217 40.8787C43.9502 39.7071 42.0507 39.7071 40.8791 40.8787C39.7075 42.0503 39.7075 43.9497 40.8791 45.1213L45.1217 40.8787ZM80.8791 85.1213C82.0506 86.2928 83.9501 86.2928 85.1217 85.1213C86.2933 83.9497 86.2933 82.0502 85.1217 80.8786L80.8791 85.1213ZM80.8783 40.8787L40.8783 80.8786L45.1209 85.1213L85.1209 45.1213L80.8783 40.8787ZM40.8791 45.1213L80.8791 85.1213L85.1217 80.8786L45.1217 40.8787L40.8791 45.1213ZM120 63C120 94.4802 94.4802 120 63 120V126C97.7939 126 126 97.7939 126 63H120ZM63 120C31.5198 120 6 94.4802 6 63H0C0 97.7939 28.2061 126 63 126V120ZM6 63C6 31.5198 31.5198 6 63 6V0C28.2061 0 0 28.2061 0 63H6ZM63 6C94.4802 6 120 31.5198 120 63H126C126 28.2061 97.7939 0 63 0V6Z" fill="#F95454"/>
</svg>
